<?xml version="1.0" standalone="no"?>
<!DOCTYPE svg PUBLIC "-//W3C//DTD SVG 20010904//EN"
 "http://www.w3.org/TR/2001/REC-SVG-20010904/DTD/svg10.dtd">
<svg version="1.0" xmlns="http://www.w3.org/2000/svg"
 width="654.000000pt" height="596.000000pt" viewBox="0 0 654.000000 596.000000"
 preserveAspectRatio="xMidYMid meet">

<g transform="translate(0.000000,596.000000) scale(0.100000,-0.100000)"
fill="#000000" stroke="none">
<path d="M2970 5819 c-454 -50 -887 -203 -1267 -448 l-75 -48 104 -5 c78 -4
125 -13 193 -36 l89 -30 81 44 c359 193 777 295 1214 295 280 0 515 -33 757
-107 179 -54 466 -176 485 -205 3 -5 23 -3 46 5 46 16 164 35 241 39 l53 2
-103 65 c-342 214 -711 350 -1128 415 -124 20 -560 29 -690 14z"/>
<path d="M1588 5313 c7 -3 16 -2 19 1 4 3 -2 6 -13 5 -11 0 -14 -3 -6 -6z"/>
<path d="M1528 5303 c7 -3 16 -2 19 1 4 3 -2 6 -13 5 -11 0 -14 -3 -6 -6z"/>
<path d="M3190 5284 c-277 -18 -563 -86 -801 -190 -46 -20 -86 -38 -88 -40 -3
-3 12 -22 33 -43 36 -37 46 -62 142 -366 57 -180 104 -333 104 -339 0 -6 -33
-24 -72 -39 -40 -15 -97 -41 -126 -57 -50 -29 -55 -36 -111 -153 -63 -131
-193 -452 -256 -632 -21 -60 -43 -113 -49 -117 -29 -19 -418 -91 -489 -90
-144 2 -337 109 -489 270 -166 176 -261 385 -290 634 l-11 98 -24 -53 c-343
-734 -346 -1622 -8 -2370 149 -329 347 -609 616 -872 456 -445 1023 -715 1655
-790 150 -18 486 -21 624 -5 546 60 1044 263 1480 600 124 97 366 338 468 467
578 732 764 1679 506 2576 -34 117 -99 293 -147 395 l-24 52 -8 -82 c-9 -114
-57 -293 -101 -380 -59 -117 -102 -178 -188 -266 -172 -177 -352 -275 -504
-274 -59 1 -348 52 -437 77 l-50 14 -34 98 c-56 165 -200 521 -262 650 -56
117 -61 124 -111 152 -28 16 -85 42 -125 58 -73 27 -74 29 -68 58 3 17 50 169
104 339 l99 308 73 76 c41 42 64 68 52 58 -21 -17 -24 -17 -110 17 -186 73
-355 117 -543 141 -121 16 -337 26 -430 20z m-420 -679 l0 -285 -40 0 -40 0 0
285 0 285 40 0 40 0 0 -285z m229 275 c20 -10 51 -78 51 -110 0 -13 -7 -20
-19 -20 -11 0 -26 -3 -35 -6 -11 -4 -17 4 -21 30 -14 71 -65 69 -65 -3 0 -27
14 -57 57 -121 80 -120 100 -199 69 -275 -18 -41 -48 -58 -105 -58 -36 0 -49
5 -71 30 -31 35 -48 111 -28 125 7 4 25 8 41 8 24 0 27 -4 27 -34 0 -33 21
-66 40 -66 5 0 17 11 26 25 24 37 12 79 -56 185 -64 99 -75 135 -67 206 7 64
38 94 94 94 25 0 52 -4 62 -10z m181 -275 l0 -285 -35 0 -35 0 0 285 0 285 35
0 35 0 0 -285z m199 143 c14 -76 28 -138 31 -138 3 0 17 62 31 138 l25 137 52
3 52 3 0 -285 0 -286 -40 0 -40 0 -1 193 c0 105 -4 181 -8 167 -4 -14 -18
-100 -31 -192 -20 -137 -27 -168 -40 -168 -13 0 -21 31 -40 168 -13 92 -27
178 -31 192 -4 14 -8 -62 -8 -167 l-1 -193 -35 0 -35 0 0 286 0 285 47 -3 47
-3 25 -137z m453 -128 c20 -146 37 -273 37 -282 1 -14 -7 -18 -33 -18 l-33 0
-7 60 -7 60 -44 0 -44 0 -7 -60 -7 -60 -39 0 c-40 0 -40 0 -34 33 3 17 19 131
36 252 44 323 32 287 93 283 l51 -3 38 -265z m-1399 -545 c-7 -60 -12 -120
-11 -132 2 -16 108 -94 416 -308 228 -157 420 -285 426 -283 7 2 198 131 425
288 l412 285 -6 70 c-4 39 -11 97 -15 129 -5 33 -8 61 -6 63 1 2 18 -7 37 -19
24 -17 48 -50 82 -117 26 -52 46 -101 45 -108 -2 -7 -151 -116 -333 -241
l-330 -229 -3 -247 c-1 -135 0 -246 4 -246 3 0 164 83 357 184 314 164 489
255 509 264 3 2 16 -26 28 -62 l21 -65 -36 -37 c-61 -60 -75 -104 -68 -204 6
-97 -10 -194 -59 -355 -61 -202 -71 -214 -166 -200 -115 16 -478 110 -584 150
-17 7 -18 -5 -18 -159 0 -159 1 -166 20 -166 18 0 20 7 20 70 l0 71 38 -6 c96
-17 328 -78 394 -105 86 -35 122 -60 126 -87 3 -19 -3 -19 -273 -15 l-275 5 0
-32 0 -31 270 0 c149 0 270 -2 270 -5 0 -10 -49 -100 -68 -123 l-18 -23 -214
55 c-118 31 -221 56 -227 56 -7 0 -13 -11 -13 -25 0 -20 7 -26 38 -34 20 -5
112 -29 205 -52 92 -24 167 -46 167 -49 0 -3 -23 -24 -50 -48 l-50 -43 -155
79 c-147 76 -155 79 -155 57 0 -20 20 -34 138 -95 l138 -71 -76 -78 c-43 -44
-83 -96 -94 -121 -79 -186 -119 -237 -229 -289 -246 -116 -542 -29 -638 187
-60 134 -75 158 -145 230 l-71 72 138 70 c123 63 139 74 139 96 0 24 -4 23
-155 -56 l-155 -82 -50 42 c-28 23 -50 45 -50 49 0 4 57 22 128 40 289 73 282
71 282 97 0 13 -6 24 -12 24 -7 0 -110 -25 -228 -55 l-215 -55 -18 22 c-18 23
-67 113 -67 123 0 3 122 5 270 5 l270 0 0 30 0 30 -281 0 -281 0 14 23 c24 39
155 94 319 136 85 21 173 41 197 45 l42 6 0 -70 c0 -63 2 -70 20 -70 19 0 20
7 20 166 0 154 -1 166 -17 159 -10 -3 -88 -27 -173 -51 -249 -73 -446 -113
-488 -100 -23 8 -49 65 -91 201 -49 161 -65 257 -58 355 7 100 -7 144 -68 204
l-36 37 21 64 21 65 72 -36 c40 -20 235 -121 433 -225 199 -104 365 -189 368
-189 3 0 6 110 6 244 l0 245 -132 92 c-571 396 -539 372 -532 399 13 57 90
185 123 207 19 13 35 22 36 21 1 -2 -4 -52 -12 -113z m3398 -378 c37 -128 75
-324 90 -471 15 -150 7 -492 -15 -636 -42 -273 -130 -547 -255 -795 -207 -410
-506 -747 -891 -1005 -618 -413 -1414 -542 -2135 -345 -171 47 -296 95 -470
180 -771 377 -1310 1115 -1436 1969 -48 327 -30 704 49 1009 l17 69 60 -96
c33 -53 87 -127 122 -165 l62 -68 -11 -69 c-19 -116 -16 -500 5 -634 163
-1040 961 -1820 2007 -1961 121 -16 436 -17 560 0 1023 133 1820 892 2001
1906 21 113 24 162 24 385 0 202 -4 278 -18 366 l-19 111 47 64 c50 68 126
216 146 288 15 51 15 51 60 -102z m-3591 -1456 c0 -5 3 -16 6 -25 6 -14 -23
-16 -280 -16 l-286 0 0 25 0 25 280 0 c163 0 280 -4 280 -9z m2600 -16 l0 -25
-285 0 c-166 0 -285 4 -285 9 0 41 0 41 291 41 l279 0 0 -25z m-2520 -236 c7
-11 10 -22 8 -23 -14 -11 -334 -86 -345 -82 -8 3 -13 13 -11 23 2 12 44 27
163 59 88 23 163 43 167 43 4 1 12 -8 18 -20z m2059 -23 c91 -23 166 -47 168
-52 1 -5 -1 -15 -6 -23 -8 -12 -36 -8 -178 29 -92 23 -169 44 -171 45 -4 3 17
45 21 45 1 -1 76 -20 166 -44z m-1906 -164 c-10 -7 -76 -43 -147 -79 -100 -50
-131 -62 -137 -51 -5 7 -9 15 -9 18 0 3 64 37 143 77 107 54 145 68 155 60 11
-9 10 -13 -5 -25z m1867 -112 c0 -3 -4 -11 -9 -18 -6 -11 -41 3 -152 58 -79
40 -146 74 -148 76 -2 2 2 10 8 18 11 13 33 5 157 -57 79 -39 144 -74 144 -77z
m-1856 -459 c10 -11 20 -38 23 -60 5 -39 4 -41 -21 -41 -23 0 -26 4 -26 35 0
38 -25 59 -41 34 -5 -8 -9 -63 -9 -124 0 -60 4 -116 9 -124 16 -25 41 -4 41
34 0 31 3 35 26 35 25 0 26 -2 21 -42 -9 -71 -73 -102 -117 -58 -18 18 -20 33
-20 153 0 104 3 137 16 155 20 28 74 30 98 3z m116 -136 l0 -155 35 0 c24 0
35 -5 35 -15 0 -12 -13 -15 -60 -15 l-60 0 0 170 0 170 25 0 25 0 0 -155z
m220 130 c0 -22 -4 -25 -35 -25 l-35 0 0 -50 c0 -47 2 -50 25 -50 20 0 25 -5
25 -25 0 -20 -5 -25 -25 -25 -23 0 -25 -3 -25 -50 l0 -50 35 0 c28 0 35 -4 35
-20 0 -18 -7 -20 -60 -20 l-60 0 0 170 0 170 60 0 c57 0 60 -1 60 -25z m139
10 c16 -8 31 -22 35 -30 10 -26 7 -86 -5 -119 -9 -24 -8 -48 4 -104 l14 -72
-23 0 c-20 0 -24 7 -34 58 -15 74 -17 82 -30 82 -6 0 -10 -29 -10 -70 0 -68
-1 -70 -25 -70 l-25 0 0 170 0 170 35 0 c20 0 49 -7 64 -15z m160 -22 c6 -21
13 -57 17 -81 7 -42 24 -69 24 -37 0 9 7 47 16 86 15 66 17 69 45 69 l29 0 0
-170 c0 -163 -1 -170 -20 -170 -19 0 -20 7 -20 117 0 64 -3 113 -6 110 -4 -4
-15 -55 -25 -113 -26 -154 -30 -153 -57 1 l-20 110 -1 -112 -1 -113 -25 0 -25
0 0 170 0 170 30 0 c25 0 31 -5 39 -37z m291 17 c18 -18 20 -33 20 -155 0
-122 -2 -137 -20 -155 -11 -11 -31 -20 -45 -20 -14 0 -34 9 -45 20 -18 18 -20
33 -20 157 0 113 3 140 17 155 21 24 68 23 93 -2z m138 -47 c12 -38 24 -80 27
-96 15 -59 25 -34 25 62 0 94 1 101 20 101 19 0 20 -7 20 -170 l0 -170 -23 0
c-20 0 -25 10 -46 84 -34 122 -41 124 -41 14 0 -98 0 -98 -25 -98 l-25 0 0
170 0 170 24 0 c21 0 27 -9 44 -67z m272 42 c0 -20 -5 -25 -25 -25 l-25 0 0
-145 0 -145 -25 0 -25 0 0 145 0 145 -25 0 c-20 0 -25 5 -25 25 0 24 2 25 75
25 73 0 75 -1 75 -25z m270 0 c0 -22 -4 -25 -40 -25 l-40 0 0 -50 c0 -49 1
-50 30 -50 23 0 30 -4 30 -20 0 -16 -7 -20 -30 -20 l-30 0 0 -75 c0 -73 -1
-75 -25 -75 l-25 0 0 170 0 170 65 0 c63 0 65 -1 65 -25z m109 19 c49 -10 61
-44 61 -169 0 -144 -11 -165 -92 -165 l-48 0 0 170 0 170 24 0 c13 0 38 -3 55
-6z m-279 -214 c0 -16 -7 -20 -35 -20 -28 0 -35 4 -35 20 0 16 7 20 35 20 28
0 35 -4 35 -20z"/>
<path d="M3736 4693 c-3 -15 -8 -53 -11 -83 -4 -30 -9 -63 -11 -72 -4 -15 1
-18 31 -18 31 0 35 2 31 23 -3 12 -10 56 -16 97 -12 85 -16 93 -24 53z"/>
<path d="M3015 3197 c-3 -116 -5 -295 -3 -397 l3 -185 123 -23 122 -23 123 23
122 23 2 130 c2 72 0 251 -5 398 l-7 268 -118 -81 -117 -81 -108 74 c-59 40
-112 76 -118 80 -9 5 -14 -51 -19 -206z"/>
<path d="M2243 3212 c-5 -15 -8 -121 -8 -237 0 -179 3 -218 19 -263 20 -60 67
-119 104 -133 35 -13 161 19 354 91 243 91 232 84 236 150 l3 55 -198 102
c-109 57 -267 139 -350 183 l-153 80 -7 -28z"/>
<path d="M3918 3056 l-348 -181 0 -51 c0 -31 5 -56 13 -62 19 -16 277 -115
394 -152 57 -17 123 -32 149 -33 41 -2 49 2 84 40 65 69 75 121 75 373 -1 119
-5 222 -10 231 -9 14 -58 -9 -357 -165z"/>
<path d="M3014 2289 c2 -132 6 -242 8 -244 1 -1 56 -11 120 -22 117 -20 118
-20 238 0 l120 20 0 244 0 243 -37 -6 c-201 -31 -194 -31 -318 -12 -66 10
-123 18 -128 18 -4 0 -5 -108 -3 -241z"/>
<path d="M3180 1799 l0 -110 -57 -60 c-37 -39 -53 -63 -47 -69 7 -7 32 11 72
51 l62 61 0 119 c0 99 -3 119 -15 119 -12 0 -15 -19 -15 -111z"/>
<path d="M3310 1787 l0 -123 60 -59 c46 -46 63 -56 72 -47 9 9 -2 25 -45 71
l-57 60 0 110 c0 92 -3 111 -15 111 -13 0 -15 -20 -15 -123z"/>
<path d="M2910 1144 c0 -61 13 -68 40 -22 11 21 12 31 2 52 -6 14 -18 26 -27
26 -12 0 -15 -13 -15 -56z"/>
<path d="M3347 1203 c-9 -8 -9 -226 -1 -247 3 -9 12 -16 19 -16 20 0 25 25 25
135 0 57 -3 110 -6 119 -6 16 -26 21 -37 9z"/>
<path d="M4170 1075 c0 -115 2 -126 18 -123 15 3 17 17 17 123 0 106 -2 120
-17 123 -16 3 -18 -8 -18 -123z"/>
<path d="M4458 5234 c-39 -21 -35 -28 5 -8 37 19 44 24 31 24 -5 -1 -21 -8
-36 -16z"/>
<path d="M1194 5174 c-18 -14 -18 -15 4 -4 12 6 22 13 22 15 0 8 -5 6 -26 -11z"/>
<path d="M4349 5163 c-13 -16 -12 -17 4 -4 16 13 21 21 13 21 -2 0 -10 -8 -17
-17z"/>
<path d="M1521 5149 c-77 -15 -144 -40 -227 -86 -212 -117 -340 -266 -419
-485 -44 -124 -59 -232 -52 -377 6 -119 35 -248 55 -244 6 1 20 -26 31 -60 76
-223 330 -449 534 -473 37 -4 97 2 201 21 183 33 230 47 233 65 6 34 -10 40
-67 25 -30 -8 -117 -25 -193 -38 -164 -29 -194 -26 -317 34 -71 35 -101 58
-180 138 -105 107 -163 197 -204 321 -63 188 -60 379 9 579 13 40 22 78 18 84
-4 6 -1 7 7 2 10 -6 12 -4 6 11 -4 10 -4 15 0 12 3 -4 28 26 54 66 124 191
329 322 556 357 197 30 390 -41 541 -198 68 -71 53 -34 185 -455 42 -137 52
-152 84 -130 8 5 -15 91 -73 277 l-85 270 -61 63 c-109 112 -234 187 -358 217
-69 16 -207 18 -278 4z"/>
<path d="M4727 5145 c-124 -34 -282 -130 -373 -227 -56 -59 -41 -19 -182 -468
-27 -86 -36 -127 -28 -132 34 -23 41 -7 121 248 58 186 88 267 108 293 83 105
253 209 387 237 259 54 599 -104 755 -351 83 -132 124 -276 131 -455 4 -79 11
-138 20 -161 13 -29 13 -44 4 -78 -6 -24 -9 -45 -7 -47 12 -12 29 96 34 217
11 282 -69 500 -252 685 -127 128 -255 200 -424 238 -83 19 -227 19 -294 1z"/>
<path d="M4309 5133 c-13 -16 -12 -17 4 -4 9 7 17 15 17 17 0 8 -8 3 -21 -13z"/>
<path d="M1119 5123 c-13 -16 -12 -17 4 -4 16 13 21 21 13 21 -2 0 -10 -8 -17
-17z"/>
<path d="M1069 5083 l-24 -28 28 24 c25 23 32 31 24 31 -2 0 -14 -12 -28 -27z"/>
<path d="M999 5023 l-24 -28 28 24 c25 23 32 31 24 31 -2 0 -14 -12 -28 -27z"/>
<path d="M939 4953 l-24 -28 28 24 c25 23 32 31 24 31 -2 0 -14 -12 -28 -27z"/>
<path d="M899 4903 c-13 -16 -12 -17 4 -4 9 7 17 15 17 17 0 8 -8 3 -21 -13z"/>
<path d="M810 4759 c-12 -23 -20 -43 -18 -45 3 -2 14 17 26 41 27 56 20 60 -8
4z"/>
<path d="M766 4665 c-9 -26 -7 -32 5 -12 6 10 9 21 6 23 -2 3 -7 -2 -11 -11z"/>
<path d="M731 4554 c0 -11 3 -14 6 -6 3 7 2 16 -1 19 -3 4 -6 -2 -5 -13z"/>
<path d="M721 4514 c0 -11 3 -14 6 -6 3 7 2 16 -1 19 -3 4 -6 -2 -5 -13z"/>
<path d="M711 4474 c0 -11 3 -14 6 -6 3 7 2 16 -1 19 -3 4 -6 -2 -5 -13z"/>
<path d="M702 4415 c0 -16 2 -22 5 -12 2 9 2 23 0 30 -3 6 -5 -1 -5 -18z"/>
<path d="M693 4335 c0 -27 2 -38 4 -22 2 15 2 37 0 50 -2 12 -4 0 -4 -28z"/>
<path d="M5631 4057 c-2 -35 -62 -176 -102 -238 -23 -35 -82 -104 -133 -154
-74 -74 -107 -100 -176 -133 -118 -59 -157 -64 -293 -40 -62 10 -148 27 -192
38 -82 19 -99 15 -92 -20 3 -18 50 -32 233 -65 164 -30 218 -29 305 5 68 27
171 95 239 157 57 52 145 164 145 186 1 7 11 39 24 71 27 73 54 184 47 200 -2
6 -5 3 -5 -7z"/>
<path d="M5608 3879 c-20 -43 -34 -79 -32 -79 7 0 77 150 73 155 -2 2 -21 -32
-41 -76z"/>
</g>
</svg>
